Results Summaries
…
Results Summaries

library(tidyverse)
source(here::here("src", "interval_overlap.R"))

theme_set(theme_minimal())

Load Data

scenarios_order <- c("No missing", "MCAR 0.05", "MCAR 0.10", "MCAR 0.25", "MCAR 0.50", "MNAR")

read_csv(here::here("results", "04_results_thinned.csv"))

## # A tibble: 20,000 x 145
##       X1 beta_age beta_failures beta_Medu beta_absences beta_G2 beta_sex_M
##    <dbl>    <dbl>         <dbl>     <dbl>         <dbl>   <dbl>      <dbl>
##  1     0  -0.294          -1.43    0.433        0.0377    0.345      0.978
##  2     1  -0.0409         -1.59    0.258        0.0440    0.246      1.09 
##  3     2  -0.107          -1.91    0.308        0.0143    0.285      0.400
##  4     3  -0.325          -1.30    0.586        0.00802   0.256      0.499
##  5     4  -0.250          -1.79    0.272        0.0301    0.316      1.27 
##  6     5  -0.551          -1.34    0.532        0.00218   0.276      1.15 
##  7     6  -0.225          -1.26    0.551        0.0365    0.221      0.625
##  8     7  -0.0235         -1.68    0.0941       0.0371    0.334      0.487
##  9     8  -0.0767         -1.42    0.304        0.0523    0.256      0.443
## 10     9  -0.313          -1.47    0.412        0.0769    0.276      1.26 
## #  with 19,990 more rows, and 138 more variables: beta_higher_yes <dbl>,
## #   beta_intercept <dbl>, missing_absences_0 <dbl>, missing_absences_1 <dbl>,
## #   missing_absences_2 <dbl>, missing_absences_3 <dbl>,
## #   missing_absences_4 <dbl>, missing_absences_5 <dbl>,
## #   missing_absences_6 <dbl>, missing_absences_7 <dbl>,
## #   missing_absences_8 <dbl>, missing_absences_9 <dbl>,
## #   missing_absences_10 <dbl>, missing_absences_11 <dbl>,
## #   missing_absences_12 <dbl>, missing_absences_13 <dbl>,
## #   missing_absences_14 <dbl>, missing_absences_15 <dbl>,
…
